<svg xmlns="http://www.w3.org/2000/svg" width="21.408" height="21.826" viewBox="0 0 21.408 21.826">
  <g id="Icon_KP_24:_logout" data-name="Icon KP 24: logout" transform="translate(1 1)">
    <path id="Path_848" data-name="Path 848" d="M12.913,2H6.3A3.3,3.3,0,0,0,3,5.3V18.522a3.3,3.3,0,0,0,3.3,3.3h6.609" transform="translate(-3 -2)" fill="none" stroke="#fff" stroke-linecap="round" stroke-linejoin="round" stroke-width="2"/>
    <path id="Path_849" data-name="Path 849" d="M22,12.52,15.79,17.7M7.956,12.133h0Zm14.043,0L15.79,6.957Z" transform="translate(-3 -2)" fill="none" stroke="#fff" stroke-linecap="round" stroke-linejoin="round" stroke-width="2"/>
  </g>
</svg>
